\relax 
\providecommand\hyper@newdestlabel[2]{}
\catcode `"\active 
\catcode `<\active 
\catcode `>\active 
\@nameuse{es@quoting}
\providecommand\HyperFirstAtBeginDocument{\AtBeginDocument}
\HyperFirstAtBeginDocument{\ifx\hyper@anchor\@undefined
\global\let\oldcontentsline\contentsline
\gdef\contentsline#1#2#3#4{\oldcontentsline{#1}{#2}{#3}}
\global\let\oldnewlabel\newlabel
\gdef\newlabel#1#2{\newlabelxx{#1}#2}
\gdef\newlabelxx#1#2#3#4#5#6{\oldnewlabel{#1}{{#2}{#3}}}
\AtEndDocument{\ifx\hyper@anchor\@undefined
\let\contentsline\oldcontentsline
\let\newlabel\oldnewlabel
\fi}
\fi}
\global\let\hyper@last\relax 
\gdef\HyperFirstAtBeginDocument#1{#1}
\providecommand\HyField@AuxAddToFields[1]{}
\providecommand\HyField@AuxAddToCoFields[2]{}
\select@language{spanish}
\@writefile{toc}{\select@language{spanish}}
\@writefile{lof}{\select@language{spanish}}
\@writefile{lot}{\select@language{spanish}}
\newlabel{index::doc}{{}{1}{}{section*.2}{}}
\@writefile{toc}{\contentsline {chapter}{\numberline {1}Fase de an\IeC {\'a}lisis}{1}{chapter.1}}
\@writefile{lof}{\addvspace {10\p@ }}
\@writefile{lot}{\addvspace {10\p@ }}
\newlabel{analysis/intro:fase-de-analisis}{{1}{1}{Fase de análisis}{chapter.1}{}}
\newlabel{analysis/intro::doc}{{1}{1}{Fase de análisis}{chapter.1}{}}
\newlabel{analysis/intro:marcobootstrap-ingenieria}{{1}{1}{Fase de análisis}{chapter.1}{}}
\@writefile{toc}{\contentsline {section}{\numberline {1.1}Dominio del problema}{1}{section.1.1}}
\newlabel{analysis/domain:dominio-del-problema}{{1.1}{1}{Dominio del problema}{section.1.1}{}}
\newlabel{analysis/domain::doc}{{1.1}{1}{Dominio del problema}{section.1.1}{}}
\@writefile{toc}{\contentsline {section}{\numberline {1.2}Objetivos}{1}{section.1.2}}
\newlabel{analysis/goals::doc}{{1.2}{1}{Objetivos}{section.1.2}{}}
\newlabel{analysis/goals:objetivos}{{1.2}{1}{Objetivos}{section.1.2}{}}
\@writefile{toc}{\contentsline {subsection}{\numberline {1.2.1}OBJ1 Programaci\IeC {\'o}n de operaciones}{1}{subsection.1.2.1}}
\newlabel{analysis/goals:obj1-programacion-de-operaciones}{{1.2.1}{1}{OBJ1 Programación de operaciones}{subsection.1.2.1}{}}
\@writefile{toc}{\contentsline {subsection}{\numberline {1.2.2}OBJ2 Instalaci\IeC {\'o}n desatendida}{2}{subsection.1.2.2}}
\newlabel{analysis/goals:obj2-instalacion-desatendida}{{1.2.2}{2}{OBJ2 Instalación desatendida}{subsection.1.2.2}{}}
\@writefile{toc}{\contentsline {subsection}{\numberline {1.2.3}OBJ3 Actualizaci\IeC {\'o}n}{2}{subsection.1.2.3}}
\newlabel{analysis/goals:obj3-actualizacion}{{1.2.3}{2}{OBJ3 Actualización}{subsection.1.2.3}{}}
\@writefile{toc}{\contentsline {subsection}{\numberline {1.2.4}OBJ4 \emph  {Zeroconf}}{2}{subsection.1.2.4}}
\newlabel{analysis/goals:obj4-zeroconf}{{1.2.4}{2}{OBJ4 \emph {Zeroconf}}{subsection.1.2.4}{}}
\@writefile{toc}{\contentsline {section}{\numberline {1.3}Actores}{3}{section.1.3}}
\newlabel{analysis/actors:actores}{{1.3}{3}{Actores}{section.1.3}{}}
\newlabel{analysis/actors::doc}{{1.3}{3}{Actores}{section.1.3}{}}
\@writefile{toc}{\contentsline {subsection}{\numberline {1.3.1}\textbf  {ACT1} Administrador}{3}{subsection.1.3.1}}
\newlabel{analysis/actors:act1-administrador}{{1.3.1}{3}{\textbf {ACT1} Administrador}{subsection.1.3.1}{}}
\@writefile{toc}{\contentsline {subsection}{\numberline {1.3.2}\textbf  {ACT2} Servidor}{3}{subsection.1.3.2}}
\newlabel{analysis/actors:act2-servidor}{{1.3.2}{3}{\textbf {ACT2} Servidor}{subsection.1.3.2}{}}
\@writefile{toc}{\contentsline {subsection}{\numberline {1.3.3}\textbf  {ACT3} Nodo}{3}{subsection.1.3.3}}
\newlabel{analysis/actors:act3-nodo}{{1.3.3}{3}{\textbf {ACT3} Nodo}{subsection.1.3.3}{}}
\@writefile{toc}{\contentsline {section}{\numberline {1.4}Requisitos de informaci\IeC {\'o}n}{3}{section.1.4}}
\newlabel{analysis/ir::doc}{{1.4}{3}{Requisitos de información}{section.1.4}{}}
\newlabel{analysis/ir:requisitos-de-informacion}{{1.4}{3}{Requisitos de información}{section.1.4}{}}
\@writefile{toc}{\contentsline {subsection}{\numberline {1.4.1}\textbf  {IRQ1}: Gesti\IeC {\'o}n de usuarios}{3}{subsection.1.4.1}}
\newlabel{analysis/ir:irq1-gestion-de-usuarios}{{1.4.1}{3}{\textbf {IRQ1}: Gestión de usuarios}{subsection.1.4.1}{}}
\@writefile{toc}{\contentsline {subsection}{\numberline {1.4.2}\textbf  {IRQ2}: Registro de operaciones}{4}{subsection.1.4.2}}
\newlabel{analysis/ir:irq2-registro-de-operaciones}{{1.4.2}{4}{\textbf {IRQ2}: Registro de operaciones}{subsection.1.4.2}{}}
\@writefile{toc}{\contentsline {subsection}{\numberline {1.4.3}\textbf  {IRQ3}: Registro de operaciones local}{4}{subsection.1.4.3}}
\newlabel{analysis/ir:irq3-registro-de-operaciones-local}{{1.4.3}{4}{\textbf {IRQ3}: Registro de operaciones local}{subsection.1.4.3}{}}
\@writefile{toc}{\contentsline {section}{\numberline {1.5}Requisitos funcionales}{5}{section.1.5}}
\newlabel{analysis/fr:requisitos-funcionales}{{1.5}{5}{Requisitos funcionales}{section.1.5}{}}
\newlabel{analysis/fr::doc}{{1.5}{5}{Requisitos funcionales}{section.1.5}{}}
\@writefile{toc}{\contentsline {subsection}{\numberline {1.5.1}\textbf  {RF1}: Programar operaci\IeC {\'o}n}{5}{subsection.1.5.1}}
\newlabel{analysis/fr:rf1-programar-operacion}{{1.5.1}{5}{\textbf {RF1}: Programar operación}{subsection.1.5.1}{}}
\@writefile{toc}{\contentsline {subsection}{\numberline {1.5.2}\textbf  {RF2} Ordenar cancelaci\IeC {\'o}n}{6}{subsection.1.5.2}}
\newlabel{analysis/fr:rf2-ordenar-cancelacion}{{1.5.2}{6}{\textbf {RF2} Ordenar cancelación}{subsection.1.5.2}{}}
\@writefile{toc}{\contentsline {subsection}{\numberline {1.5.3}\textbf  {RF3} Consulta al registro de operaciones}{6}{subsection.1.5.3}}
\newlabel{analysis/fr:rf3-consulta-al-registro-de-operaciones}{{1.5.3}{6}{\textbf {RF3} Consulta al registro de operaciones}{subsection.1.5.3}{}}
\@writefile{toc}{\contentsline {subsection}{\numberline {1.5.4}\textbf  {RF4} Consulta de operaciones programadas}{7}{subsection.1.5.4}}
\newlabel{analysis/fr:rf4-consulta-de-operaciones-programadas}{{1.5.4}{7}{\textbf {RF4} Consulta de operaciones programadas}{subsection.1.5.4}{}}
\@writefile{toc}{\contentsline {subsection}{\numberline {1.5.5}\textbf  {RF5} Consulta de hist\IeC {\'o}rico}{8}{subsection.1.5.5}}
\newlabel{analysis/fr:rf5-consulta-de-historico}{{1.5.5}{8}{\textbf {RF5} Consulta de histórico}{subsection.1.5.5}{}}
\@writefile{toc}{\contentsline {subsection}{\numberline {1.5.6}\textbf  {RF6} Descarga del sistema operativo}{8}{subsection.1.5.6}}
\newlabel{analysis/fr:rf6-descarga-del-sistema-operativo}{{1.5.6}{8}{\textbf {RF6} Descarga del sistema operativo}{subsection.1.5.6}{}}
\@writefile{toc}{\contentsline {subsection}{\numberline {1.5.7}\textbf  {RF7} Instalaci\IeC {\'o}n}{9}{subsection.1.5.7}}
\newlabel{analysis/fr:rf7-instalacion}{{1.5.7}{9}{\textbf {RF7} Instalación}{subsection.1.5.7}{}}
\@writefile{toc}{\contentsline {subsection}{\numberline {1.5.8}\textbf  {RF8} Actualizaci\IeC {\'o}n}{10}{subsection.1.5.8}}
\newlabel{analysis/fr:rf8-actualizacion}{{1.5.8}{10}{\textbf {RF8} Actualización}{subsection.1.5.8}{}}
\@writefile{toc}{\contentsline {subsection}{\numberline {1.5.9}\textbf  {RF9} Gestionar error en la instalaci\IeC {\'o}n}{10}{subsection.1.5.9}}
\newlabel{analysis/fr:rf9-gestionar-error-en-la-instalacion}{{1.5.9}{10}{\textbf {RF9} Gestionar error en la instalación}{subsection.1.5.9}{}}
\@writefile{toc}{\contentsline {subsection}{\numberline {1.5.10}\textbf  {RF10} Gestionar error en backend}{11}{subsection.1.5.10}}
\newlabel{analysis/fr:rf10-gestionar-error-en-backend}{{1.5.10}{11}{\textbf {RF10} Gestionar error en backend}{subsection.1.5.10}{}}
\@writefile{toc}{\contentsline {subsection}{\numberline {1.5.11}\textbf  {RF11} Autenticaci\IeC {\'o}n}{12}{subsection.1.5.11}}
\newlabel{analysis/fr:rf11-autenticacion}{{1.5.11}{12}{\textbf {RF11} Autenticación}{subsection.1.5.11}{}}
\@writefile{toc}{\contentsline {subsection}{\numberline {1.5.12}\textbf  {RF12} Creaci\IeC {\'o}n de imagen del sistema operativo}{12}{subsection.1.5.12}}
\newlabel{analysis/fr:rf12-creacion-de-imagen-del-sistema-operativo}{{1.5.12}{12}{\textbf {RF12} Creación de imagen del sistema operativo}{subsection.1.5.12}{}}
\@writefile{toc}{\contentsline {subsection}{\numberline {1.5.13}\textbf  {RF13} Creaci\IeC {\'o}n de imagen de instalaci\IeC {\'o}n o actualizaci\IeC {\'o}n}{13}{subsection.1.5.13}}
\newlabel{analysis/fr:rf13-creacion-de-imagen-de-instalacion-o-actualizacion}{{1.5.13}{13}{\textbf {RF13} Creación de imagen de instalación o actualización}{subsection.1.5.13}{}}
\@writefile{toc}{\contentsline {subsection}{\numberline {1.5.14}\textbf  {RF14} Realizar operaci\IeC {\'o}n}{14}{subsection.1.5.14}}
\newlabel{analysis/fr:rf14-realizar-operacion}{{1.5.14}{14}{\textbf {RF14} Realizar operación}{subsection.1.5.14}{}}
\@writefile{toc}{\contentsline {subsection}{\numberline {1.5.15}\textbf  {RF15} Cancelar operaci\IeC {\'o}n}{14}{subsection.1.5.15}}
\newlabel{analysis/fr:rf15-cancelar-operacion}{{1.5.15}{14}{\textbf {RF15} Cancelar operación}{subsection.1.5.15}{}}
\@writefile{toc}{\contentsline {subsection}{\numberline {1.5.16}Vista de casos de uso}{15}{subsection.1.5.16}}
\newlabel{analysis/fr:vista-de-casos-de-uso}{{1.5.16}{15}{Vista de casos de uso}{subsection.1.5.16}{}}
\@writefile{toc}{\contentsline {subsubsection}{Vista de paquetes de casos de uso}{15}{subsubsection*.3}}
\newlabel{analysis/uc::doc}{{1.5.16}{15}{Vista de paquetes de casos de uso}{subsubsection*.3}{}}
\newlabel{analysis/uc:vista-de-paquetes-de-casos-de-uso}{{1.5.16}{15}{Vista de paquetes de casos de uso}{subsubsection*.3}{}}
\@writefile{toc}{\contentsline {section}{\numberline {1.6}Vista de paquetes de casos de uso}{15}{section.1.6}}
\newlabel{analysis/uc::doc}{{1.6}{15}{Vista de paquetes de casos de uso}{section.1.6}{}}
\newlabel{analysis/uc:vista-de-paquetes-de-casos-de-uso}{{1.6}{15}{Vista de paquetes de casos de uso}{section.1.6}{}}
\@writefile{toc}{\contentsline {section}{\numberline {1.7}Requisitos no funcionales}{15}{section.1.7}}
\newlabel{analysis/nfr:requisitos-no-funcionales}{{1.7}{15}{Requisitos no funcionales}{section.1.7}{}}
\newlabel{analysis/nfr::doc}{{1.7}{15}{Requisitos no funcionales}{section.1.7}{}}
\@writefile{toc}{\contentsline {subsection}{\numberline {1.7.1}\textbf  {NFR1} Tornado}{15}{subsection.1.7.1}}
\newlabel{analysis/nfr:nfr1-tornado}{{1.7.1}{15}{\textbf {NFR1} Tornado}{subsection.1.7.1}{}}
\@writefile{toc}{\contentsline {subsection}{\numberline {1.7.2}\textbf  {NFR2} Abstracci\IeC {\'o}n de la base de datos}{18}{subsection.1.7.2}}
\newlabel{analysis/nfr:nfr2-abstraccion-de-la-base-de-datos}{{1.7.2}{18}{\textbf {NFR2} Abstracción de la base de datos}{subsection.1.7.2}{}}
\@writefile{toc}{\contentsline {subsection}{\numberline {1.7.3}\textbf  {NFR3} HTTPS con doble validaci\IeC {\'o}n}{18}{subsection.1.7.3}}
\newlabel{analysis/nfr:nfr3-https-con-doble-validacion}{{1.7.3}{18}{\textbf {NFR3} HTTPS con doble validación}{subsection.1.7.3}{}}
\@writefile{toc}{\contentsline {subsection}{\numberline {1.7.4}\textbf  {NFR4} Compatibilidad con systemd e initd}{18}{subsection.1.7.4}}
\newlabel{analysis/nfr:nfr4-compatibilidad-con-systemd-e-initd}{{1.7.4}{18}{\textbf {NFR4} Compatibilidad con systemd e initd}{subsection.1.7.4}{}}
\@writefile{toc}{\contentsline {subsection}{\numberline {1.7.5}\textbf  {NFR5} Instalaci\IeC {\'o}n a trav\IeC {\'e}s de \texttt  {setuptools}}{19}{subsection.1.7.5}}
\newlabel{analysis/nfr:nfr5-instalacion-a-traves-de-setuptools}{{1.7.5}{19}{\textbf {NFR5} Instalación a través de \texttt {setuptools}}{subsection.1.7.5}{}}
\@writefile{toc}{\contentsline {subsection}{\numberline {1.7.6}\textbf  {NFR6} Registro}{19}{subsection.1.7.6}}
\newlabel{analysis/nfr:nfr6-registro}{{1.7.6}{19}{\textbf {NFR6} Registro}{subsection.1.7.6}{}}
\@writefile{toc}{\contentsline {subsection}{\numberline {1.7.7}\textbf  {NRF7} Validaci\IeC {\'o}n de los datos de usuario}{19}{subsection.1.7.7}}
\newlabel{analysis/nfr:nrf7-validacion-de-los-datos-de-usuario}{{1.7.7}{19}{\textbf {NRF7} Validación de los datos de usuario}{subsection.1.7.7}{}}
\@writefile{toc}{\contentsline {section}{\numberline {1.8}Vista est\IeC {\'a}tica del sistema}{20}{section.1.8}}
\newlabel{analysis/static:vista-estatica-del-sistema}{{1.8}{20}{Vista estática del sistema}{section.1.8}{}}
\newlabel{analysis/static::doc}{{1.8}{20}{Vista estática del sistema}{section.1.8}{}}
\@writefile{toc}{\contentsline {section}{\numberline {1.9}Vista de actividad}{20}{section.1.9}}
\newlabel{analysis/activity:vista-de-actividad}{{1.9}{20}{Vista de actividad}{section.1.9}{}}
\newlabel{analysis/activity::doc}{{1.9}{20}{Vista de actividad}{section.1.9}{}}
\@writefile{toc}{\contentsline {subsection}{\numberline {1.9.1}Programaci\IeC {\'o}n y cancelaci\IeC {\'o}n de un evento}{20}{subsection.1.9.1}}
\newlabel{analysis/activity:programacion-y-cancelacion-de-un-evento}{{1.9.1}{20}{Programación y cancelación de un evento}{subsection.1.9.1}{}}
\@writefile{toc}{\contentsline {subsection}{\numberline {1.9.2}Proceso de instalaci\IeC {\'o}n del sistema operativo}{21}{subsection.1.9.2}}
\newlabel{analysis/activity:proceso-de-instalacion-del-sistema-operativo}{{1.9.2}{21}{Proceso de instalación del sistema operativo}{subsection.1.9.2}{}}
\@writefile{toc}{\contentsline {section}{\numberline {1.10}Vista de m\IeC {\'a}quina de estados}{22}{section.1.10}}
\newlabel{analysis/statemachine::doc}{{1.10}{22}{Vista de máquina de estados}{section.1.10}{}}
\newlabel{analysis/statemachine:vista-de-maquina-de-estados}{{1.10}{22}{Vista de máquina de estados}{section.1.10}{}}
\@writefile{toc}{\contentsline {section}{\numberline {1.11}Vista de interacci\IeC {\'o}n}{22}{section.1.11}}
\newlabel{analysis/interaction::doc}{{1.11}{22}{Vista de interacción}{section.1.11}{}}
\newlabel{analysis/interaction:vista-de-interaccion}{{1.11}{22}{Vista de interacción}{section.1.11}{}}
\@writefile{toc}{\contentsline {subsection}{\numberline {1.11.1}Consulta a la base de datos}{22}{subsection.1.11.1}}
\newlabel{analysis/interaction:consulta-a-la-base-de-datos}{{1.11.1}{22}{Consulta a la base de datos}{subsection.1.11.1}{}}
\@writefile{toc}{\contentsline {section}{\numberline {1.12}Ingenier\IeC {\'\i }a web}{23}{section.1.12}}
\newlabel{analysis/web:ingenieria-web}{{1.12}{23}{Ingeniería web}{section.1.12}{}}
\newlabel{analysis/web::doc}{{1.12}{23}{Ingeniería web}{section.1.12}{}}
\@writefile{toc}{\contentsline {subsection}{\numberline {1.12.1}Mapa navegacional}{23}{subsection.1.12.1}}
\newlabel{analysis/web:mapa-navegacional}{{1.12.1}{23}{Mapa navegacional}{subsection.1.12.1}{}}
\@writefile{toc}{\contentsline {chapter}{\numberline {2}Fase de dise\IeC {\~n}o}{25}{chapter.2}}
\@writefile{lof}{\addvspace {10\p@ }}
\@writefile{lot}{\addvspace {10\p@ }}
\newlabel{design/intro:fase-de-diseno}{{2}{26}{Fase de diseño}{chapter.2}{}}
\newlabel{design/intro::doc}{{2}{26}{Fase de diseño}{chapter.2}{}}
\@writefile{toc}{\contentsline {section}{\numberline {2.1}Vista est\IeC {\'a}tica del sistema}{26}{section.2.1}}
\newlabel{design/static:vista-estatica-del-sistema}{{2.1}{26}{Vista estática del sistema}{section.2.1}{}}
\newlabel{design/static::doc}{{2.1}{26}{Vista estática del sistema}{section.2.1}{}}
\@writefile{toc}{\contentsline {subsection}{\numberline {2.1.1}Paquetes backend y models}{26}{subsection.2.1.1}}
\newlabel{design/static:paquetes-backend-y-models}{{2.1.1}{26}{Paquetes backend y models}{subsection.2.1.1}{}}
\@writefile{toc}{\contentsline {subsection}{\numberline {2.1.2}Paquete slave}{27}{subsection.2.1.2}}
\newlabel{design/static:paquete-slave}{{2.1.2}{27}{Paquete slave}{subsection.2.1.2}{}}
\@writefile{toc}{\contentsline {section}{\numberline {2.2}\IeC {\'A}mbito}{27}{section.2.2}}
\newlabel{design/scope:ambito}{{2.2}{27}{Ámbito}{section.2.2}{}}
\newlabel{design/scope::doc}{{2.2}{27}{Ámbito}{section.2.2}{}}
\@writefile{toc}{\contentsline {section}{\numberline {2.3}Dise\IeC {\~n}o de datos}{27}{section.2.3}}
\newlabel{design/data:diseno-de-datos}{{2.3}{27}{Diseño de datos}{section.2.3}{}}
\newlabel{design/data::doc}{{2.3}{27}{Diseño de datos}{section.2.3}{}}
\@writefile{toc}{\contentsline {subsection}{\numberline {2.3.1}Objetos de datos}{27}{subsection.2.3.1}}
\newlabel{design/data:objetos-de-datos}{{2.3.1}{27}{Objetos de datos}{subsection.2.3.1}{}}
\@writefile{toc}{\contentsline {subsection}{\numberline {2.3.2}Estructuras de archivo}{27}{subsection.2.3.2}}
\newlabel{design/data:estructuras-de-archivo}{{2.3.2}{27}{Estructuras de archivo}{subsection.2.3.2}{}}
\@writefile{toc}{\contentsline {section}{\numberline {2.4}Vista de interacci\IeC {\'o}n}{28}{section.2.4}}
\newlabel{design/interaction::doc}{{2.4}{28}{Vista de interacción}{section.2.4}{}}
\newlabel{design/interaction:vista-de-interaccion}{{2.4}{28}{Vista de interacción}{section.2.4}{}}
\@writefile{toc}{\contentsline {subsection}{\numberline {2.4.1}Consulta a la base de datos}{28}{subsection.2.4.1}}
\newlabel{design/interaction:consulta-a-la-base-de-datos}{{2.4.1}{28}{Consulta a la base de datos}{subsection.2.4.1}{}}
\@writefile{toc}{\contentsline {section}{\numberline {2.5}Interfaz gr\IeC {\'a}fica de usuario}{28}{section.2.5}}
\newlabel{design/gui:interfaz-grafica-de-usuario}{{2.5}{28}{Interfaz gráfica de usuario}{section.2.5}{}}
\newlabel{design/gui::doc}{{2.5}{28}{Interfaz gráfica de usuario}{section.2.5}{}}
\@writefile{toc}{\contentsline {section}{\numberline {2.6}Despliegue}{29}{section.2.6}}
\newlabel{design/architecture::doc}{{2.6}{29}{Despliegue}{section.2.6}{}}
\newlabel{design/architecture:despliegue}{{2.6}{29}{Despliegue}{section.2.6}{}}
\@writefile{toc}{\contentsline {section}{\numberline {2.7}Dise\IeC {\~n}o procedimental}{30}{section.2.7}}
\newlabel{design/procedimental:diseno-procedimental}{{2.7}{30}{Diseño procedimental}{section.2.7}{}}
\newlabel{design/procedimental::doc}{{2.7}{30}{Diseño procedimental}{section.2.7}{}}
\@writefile{toc}{\contentsline {subsection}{\numberline {2.7.1}Detecci\IeC {\'o}n del sistema operativo y descarga}{30}{subsection.2.7.1}}
\newlabel{design/procedimental:deteccion-del-sistema-operativo-y-descarga}{{2.7.1}{30}{Detección del sistema operativo y descarga}{subsection.2.7.1}{}}
\@writefile{toc}{\contentsline {subsection}{\numberline {2.7.2}Programaci\IeC {\'o}n de una operaci\IeC {\'o}n de actualizaci\IeC {\'o}n}{31}{subsection.2.7.2}}
\newlabel{design/procedimental:programacion-de-una-operacion-de-actualizacion}{{2.7.2}{31}{Programación de una operación de actualización}{subsection.2.7.2}{}}
\@writefile{toc}{\contentsline {subsection}{\numberline {2.7.3}Creaci\IeC {\'o}n de una operaci\IeC {\'o}n}{32}{subsection.2.7.3}}
\newlabel{design/procedimental:creacion-de-una-operacion}{{2.7.3}{32}{Creación de una operación}{subsection.2.7.3}{}}
\@writefile{toc}{\contentsline {section}{\numberline {2.8}Pruebas}{33}{section.2.8}}
\newlabel{design/tests::doc}{{2.8}{33}{Pruebas}{section.2.8}{}}
\newlabel{design/tests:pruebas}{{2.8}{33}{Pruebas}{section.2.8}{}}
\@writefile{toc}{\contentsline {section}{\numberline {2.9}Patrones de dise\IeC {\~n}o destacados}{33}{section.2.9}}
\newlabel{design/patterns:patrones-de-diseno-destacados}{{2.9}{33}{Patrones de diseño destacados}{section.2.9}{}}
\newlabel{design/patterns::doc}{{2.9}{33}{Patrones de diseño destacados}{section.2.9}{}}
\@writefile{toc}{\contentsline {chapter}{\numberline {3}Gesti\IeC {\'o}n del proyecto}{35}{chapter.3}}
\@writefile{lof}{\addvspace {10\p@ }}
\@writefile{lot}{\addvspace {10\p@ }}
\newlabel{project_mgmt/intro:gestion-del-proyecto}{{3}{35}{Gestión del proyecto}{chapter.3}{}}
\newlabel{project_mgmt/intro::doc}{{3}{35}{Gestión del proyecto}{chapter.3}{}}
\@writefile{toc}{\contentsline {chapter}{\numberline {4}Indices and tables}{37}{chapter.4}}
\@writefile{lof}{\addvspace {10\p@ }}
\@writefile{lot}{\addvspace {10\p@ }}
\newlabel{index:indices-and-tables}{{4}{37}{Indices and tables}{chapter.4}{}}
